DIY Metrics: Full-season five-man Plus/Minus
…
}

There are probably better ways to do this than the approach I used, but I wanted to cause minimal changes throughout my code, and since this cleaning step is done infrequently, I’m not too bothered about efficiency.

Now the fun stuff!

Now that we’ve ironed out a few wrinkles in our data, we can start having fun with it! First, let’s just look at what our five-man plus/minus numbers look like:

fpm <- tmp %>% filter(team == "SAS") %>% select(`Five-man Plus/Minus`) %>% unnest() %>%
  filter(unittime > 0) %>% 
  mutate(normpm = `Plus/Minus` * 48 * 60 / unittime)

fpm

## # A tibble: 566 x 8
##    p1       p2      p3       p4       p5       `Plus/Minus` unittime normpm
##    <chr>    <chr>   <chr>    <chr>    <chr>           <dbl>    <dbl>  <dbl>
##  1 Brandon~ Bryn F~ Danny G~ Dejount~ LaMarcu~            0       66    0  
##  2 Brandon~ Bryn F~ Danny G~ Dejount~ Patty M~            0        4    0  
##  3 Brandon~ Bryn F~ Danny G~ LaMarcu~ Manu Gi~            0        3    0  
##  4 Brandon~ Bryn F~ Danny G~ LaMarcu~ Patty M~           -7      109 -185. 
##  5 Brandon~ Bryn F~ Danny G~ Patty M~ Rudy Gay            1       38   75.8
##  6 Brandon~ Bryn F~ Darrun ~ Davis B~ Dejount~          -13      481  -77.8
##  7 Brandon~ Bryn F~ Darrun ~ Davis B~ Derrick~            2       33  175. 
##  8 Brandon~ Bryn F~ Darrun ~ Davis B~ Joffrey~           10      384   75  
##  9 Brandon~ Bryn F~ Darrun ~ Davis B~ Matt Co~           -2      203  -28.4
## 10 Brandon~ Bryn F~ Darrun ~ Dejount~ Joffrey~           -1       60  -48  
## # ... with 556 more rows
…
