Is Scott well-calibrated?
…
The red dots are the actual outcomes from Scott’s predictions last year, and the gray shaded region represents the simultaneous prediction band. Since every dot is in the band, we once again fail to find evidence that Scott is mis-calibrated (at the 95% confidence level)!

Note that the bands aren’t uniform width. Typically, the variance in binomial draws decreases as you move away from \(p = 0.5\), but in this case, we also have different numbers of observations in each bin. This is why you see, for example, the prediction band narrow at \(p = 0.9\) and then widen again at \(p = 0.95\); there were 18 predictions that Scott placed into the former bin but only 8 in the latter.

Now, having said that, Bonferroni is notoriously a conservative approach. What would be better would be to look at the joint CDF and build confidence bands off of that somehow.

Using the joint CDF

This bit is a little dicey, since we’re going to be estimating the probability of the full outcome instead of trying to treat each bin separately and making a post-hoc correction like we did above. In other words, the above approach defined its acceptance regions as, “50% bin between 5 and 17 correct AND 60% bin between 4 and 14 correct AND …”, this approach will define its acceptance region as discrete sets of outcomes across all six bins(“{16, 12, 13, 16, 6}, {4, 11, 12, 16, 8}, ….”). This means accepting cases where a single bin is unlikely but most of the other bins are likely.
To do this, we first have to enumerate all possible combinations:

Then, we estimate the likelihood associated with each of these. We arrange the results in ascending order, from least likely to most likely, taking the cumulative sum of probabilities as we go. This cumulative sum is the p-value associated with each possible outcome!

## # A tibble: 76,114 x 8
##             p `50%` `60%` `70%` `80%` `90%` `95%` `p-value`
##         <dbl> <int> <int> <int> <int> <int> <int>     <dbl>
##  1 0.00000108    14    11    15     8    17     6    0.0500
##  2 0.00000108    13    11    13     7    17     6    0.0500
##  3 0.00000108    10    13    14    10    18     6    0.0500
##  4 0.00000108    12    13    14    10    18     6    0.0500
##  5 0.00000108     8     8     9    11    18     6    0.0500
##  6 0.00000108    14     8     9    11    18     6    0.0500
##  7 0.00000108     7    11    10    12    13     8    0.0500
##  8 0.00000108    15    11    10    12    13     8    0.0500
##  9 0.00000108    11    11    12     6    15     7    0.0500
## 10 0.00000108     7    10    14    13    17     6    0.0500
## # ... with 76,104 more rows
…
