DIY Metrics: Game Logs
…
If you refer back to the function above, these are the same values we spent the last post counting up!

To get back to where we were last time, let’s take our raw data set and run our function to get counting statistic indicators:

tmp %>%
  filter(team == "PHI") %>% 
  unnest() %>% 
  group_by(game_id) %>% nest() %>% slice(1) %>% unnest() %>% 
  get_ast_stl_blk(pt) %>% 
    add_simple_stat_indicators() %>% 
  select(player, gotblk, gotstl, gotast, shot3, made3, miss3)

## # A tibble: 269 x 7
##    player           gotblk gotstl gotast shot3 made3 miss3
##    <chr>            <lgl>  <lgl>  <lgl>  <lgl> <lgl> <lgl>
##  1 Robert Covington TRUE   FALSE  FALSE  FALSE FALSE FALSE
##  2 Ben Simmons      TRUE   FALSE  FALSE  FALSE FALSE FALSE
##  3 Markelle Fultz   TRUE   FALSE  FALSE  FALSE FALSE FALSE
##  4 Dario Saric      TRUE   FALSE  FALSE  FALSE FALSE FALSE
##  5 Joel Embiid      TRUE   FALSE  FALSE  FALSE FALSE FALSE
##  6 Robert Covington TRUE   FALSE  FALSE  FALSE FALSE FALSE
##  7 Ben Simmons      FALSE  TRUE   FALSE  FALSE FALSE FALSE
##  8 JJ Redick        FALSE  TRUE   FALSE  FALSE FALSE FALSE
##  9 Robert Covington FALSE  TRUE   FALSE  FALSE FALSE FALSE
## 10 Ben Simmons      FALSE  TRUE   FALSE  FALSE FALSE FALSE
## # ... with 259 more rows
…
