Calibration update, now with Brier Scores!
…
And the R packages scoring has a simple implementation (there really is an R package for just about everything), so we can use that provided we get the data formatted properly.

Scott’s predictions

Brier scores are based on individual event observations, so we have to gather the data a bit differently than before. The function I wrote to do this is included at the end of the post for those interested.

url <- 'https://slatestarcodex.com/2019/01/22/2018-predictions-calibration-results/'
library(dplyr)
library(stringr)
library(scoring)
out18 <- get_scotts_results(url) %>% 
  mutate(year = 2018)
out18

## # A tibble: 99 x 4
##    question                                               prob right  year
##    <chr>                                                 <dbl> <lgl> <dbl>
##  1 1. Donald Trump remains president at end of year: 95%  0.95 TRUE   2018
##  2 2. Democrats take control of the House in midterms: ~  0.8  TRUE   2018
##  3 3. Democrats take control of the Senate in midterms:~  0.5  FALSE  2018
##  4 4. Mueller’s investigation gets cancelled (eg Trump ~  0.5  FALSE  2018
##  5 5. Mueller does not indict Trump: 70%                  0.7  TRUE   2018
##  6 6. PredictIt shows Bernie Sanders having highest cha~  0.6  FALSE  2018
##  7 7. PredictIt shows Donald Trump having highest chanc~  0.95 TRUE   2018
##  8 9. Some sort of major immigration reform legislation~  0.7  FALSE  2018
##  9 10. No major health-care reform legislation gets pas~  0.95 TRUE   2018
## 10 11. No large-scale deportation of Dreamers: 90%        0.9  TRUE   2018
## # ... with 89 more rows
…
