DIY Metrics: Preparing a new data set
…
The third thing is all of the “problems”

problems(tbraw)

## # A tibble: 676 x 5
##      row col        expected   actual   file                               
##    <int> <chr>      <chr>      <chr>    <chr>                              
##  1 11390 original_x a double   unknown  'data/[10-17-2017]-[06-08-2018]-co~
##  2 11390 original_y a double   unknown  'data/[10-17-2017]-[06-08-2018]-co~
##  3 11390 converted~ a double   unknown  'data/[10-17-2017]-[06-08-2018]-co~
##  4 11390 converted~ a double   unknown  'data/[10-17-2017]-[06-08-2018]-co~
##  5 34256 <NA>       44 columns 46 colu~ 'data/[10-17-2017]-[06-08-2018]-co~
##  6 34257 <NA>       44 columns 46 colu~ 'data/[10-17-2017]-[06-08-2018]-co~
##  7 34258 <NA>       44 columns 46 colu~ 'data/[10-17-2017]-[06-08-2018]-co~
##  8 34259 <NA>       44 columns 46 colu~ 'data/[10-17-2017]-[06-08-2018]-co~
##  9 34260 <NA>       44 columns 46 colu~ 'data/[10-17-2017]-[06-08-2018]-co~
## 10 34261 <NA>       44 columns 46 colu~ 'data/[10-17-2017]-[06-08-2018]-co~
## # ... with 666 more rows
…
Yeah, definitely just a single game. Visual inspection doesn’t indicate that anything’s missing, so we might be able to ignore these “problems” and move on, but let’s look at one more thing before we do so:

con <- file("data/[10-17-2017]-[06-08-2018]-combined-stats.csv", "r")
ab <- read.csv(con, header = F,
         skip = min((problems(tbraw) %>% filter(actual == "46 columns") %>% select(row) %>% unique)$row),
         nrow = nrow(tbcols)) %>% 
  as_tibble()
close(con)
ab

## # A tibble: 486 x 46
##        V1 V2    V3    V4    V5    V6    V7    V8    V9    V10   V11   V12  
##     <int> <fct> <fct> <fct> <fct> <fct> <fct> <fct> <fct> <fct> <fct> <fct>
##  1 2.17e7 2017~ 10/2~ Paul~ Carm~ Stev~ Andr~ Russ~ Andr~ Taj ~ Karl~ Jimm~
##  2 2.17e7 2017~ 10/2~ Paul~ Carm~ Stev~ Andr~ Russ~ Andr~ Taj ~ Karl~ Jimm~
##  3 2.17e7 2017~ 10/2~ Paul~ Carm~ Stev~ Andr~ Russ~ Andr~ Taj ~ Karl~ Jimm~
##  4 2.17e7 2017~ 10/2~ Paul~ Carm~ Stev~ Andr~ Russ~ Andr~ Taj ~ Karl~ Jimm~
##  5 2.17e7 2017~ 10/2~ Paul~ Carm~ Stev~ Andr~ Russ~ Andr~ Taj ~ Karl~ Jimm~
##  6 2.17e7 2017~ 10/2~ Paul~ Carm~ Stev~ Andr~ Russ~ Andr~ Taj ~ Karl~ Jimm~
##  7 2.17e7 2017~ 10/2~ Paul~ Carm~ Stev~ Andr~ Russ~ Andr~ Taj ~ Karl~ Jimm~
##  8 2.17e7 2017~ 10/2~ Paul~ Carm~ Stev~ Andr~ Russ~ Andr~ Taj ~ Karl~ Jimm~
##  9 2.17e7 2017~ 10/2~ Paul~ Carm~ Stev~ Andr~ Russ~ Andr~ Taj ~ Karl~ Jimm~
## 10 2.17e7 2017~ 10/2~ Paul~ Carm~ Stev~ Andr~ Russ~ Andr~ Taj ~ Karl~ Jimm~
## # ... with 476 more rows, and 34 more variables: V13 <fct>, V14 <int>,
## #   V15 <int>, V16 <int>, V17 <fct>, V18 <fct>, V19 <fct>, V20 <int>,
## #   V21 <fct>, V22 <fct>, V23 <fct>, V24 <fct>, V25 <fct>, V26 <fct>,
## #   V27 <fct>, V28 <fct>, V29 <int>, V30 <fct>, V31 <int>, V32 <fct>,
## #   V33 <int>, V34 <fct>, V35 <fct>, V36 <fct>, V37 <fct>, V38 <fct>,
## #   V39 <int>, V40 <int>, V41 <int>, V42 <dbl>, V43 <dbl>, V44 <fct>,
## #   V45 <lgl>, V46 <lgl>

The code above reads in only the rows of our original .csv that we identified earlier as having two extra columns. I used read.csv instead of read_csv because, as far as I can tell, there isn’t a way to use the latter to read in a specific subset of the target data file. Please correct me if I’m wrong.

Now we can look directly at what’s in those columns:

ab %>% select(V45, V46)

## # A tibble: 486 x 2
##    V45   V46  
##    <lgl> <lgl>
##  1 NA    NA   
##  2 NA    NA   
##  3 NA    NA   
##  4 NA    NA   
##  5 NA    NA   
##  6 NA    NA   
##  7 NA    NA   
##  8 NA    NA   
##  9 NA    NA   
## 10 NA    NA   
## # ... with 476 more rows

As I suspected, they’re just empty columns that got included in extraneously for some reason. Probably just an error when the data set was being built. No big deal. I think this is the kind of thing that can happen when you’re working in Excel and you click in a cell beyond the scope of your data. At that point, Excel decides you “care” about those rows/columns even though you haven’t bothered to put anything into them. Then when you convert to .csv, it includes those cells in the file as “empty” cells. Bottom line is we can ignore them.

At this point, I fee safe ignoring the parsing problems associated with this game file, reducing our list greatly!

Other problems

We’re left with 190 “problems”, each of which is related to an “unknown” entry type being located where a “double” was expected:

pr <- problems(tbraw) %>% filter(actual != "46 columns")
pr

## # A tibble: 190 x 5
##       row col         expected actual  file                                
##     <int> <chr>       <chr>    <chr>   <chr>                               
##  1  11390 original_x  a double unknown 'data/[10-17-2017]-[06-08-2018]-com~
##  2  11390 original_y  a double unknown 'data/[10-17-2017]-[06-08-2018]-com~
##  3  11390 converted_x a double unknown 'data/[10-17-2017]-[06-08-2018]-com~
##  4  11390 converted_y a double unknown 'data/[10-17-2017]-[06-08-2018]-com~
##  5 392313 shot_dista~ a double unknown 'data/[10-17-2017]-[06-08-2018]-com~
##  6 392313 original_x  a double unknown 'data/[10-17-2017]-[06-08-2018]-com~
##  7 392313 original_y  a double unknown 'data/[10-17-2017]-[06-08-2018]-com~
##  8 392313 converted_x a double unknown 'data/[10-17-2017]-[06-08-2018]-com~
##  9 392313 converted_y a double unknown 'data/[10-17-2017]-[06-08-2018]-com~
## 10 421256 original_x  a double unknown 'data/[10-17-2017]-[06-08-2018]-com~
## # ... with 180 more rows
…
