DIY Metrics: Five-Man Unit Plus/Minus
…
The other reason we do this is so that when we group by five-man units, we don’t have to worry about selecting a unique five-man unit from both the “home” and “away” columns. Instead, we can just look at the “particular team” columns and group on those.

To show how this works for a single team:

bv <- eventsbyteam %>% filter(team == "BOS") %>% 
  select(`team events`, team) 

bv %>% 
  unnest() %>% 
  fiveplayers() %>% 
  group_by(p1, p2, p3, p4, p5) %>% 
  summarise(`Plus/Minus` = sum(netpoints)) 

## # A tibble: 21 x 6
## # Groups:   p1, p2, p3, p4 [?]
##    p1            p2          p3          p4         p5         `Plus/Minus`
##    <chr>         <chr>       <chr>       <chr>      <chr>             <dbl>
##  1 Al Horford    Jaylen Bro~ Marcus Sma~ Terry Roz~ Kyrie Irv~            3
##  2 Al Horford    Jaylen Bro~ Marcus Sma~ Terry Roz~ Shane Lar~           -1
##  3 Al Horford    Kyrie Irvi~ Semi Ojele~ Marcus Sm~ Jaylen Br~           -3
##  4 Gordon Haywa~ Jayson Tat~ Al Horford  Jaylen Br~ Kyrie Irv~            3
##  5 Jaylen Brown  Kyrie Irvi~ Jayson Tat~ Al Horford Marcus Sm~           -6
##  6 Jaylen Brown  Marcus Sma~ Aron Baynes Semi Ojel~ Terry Roz~           -4
##  7 Jaylen Brown  Marcus Sma~ Terry Rozi~ Kyrie Irv~ Aron Bayn~            0
##  8 Jaylen Brown  Terry Rozi~ Kyrie Irvi~ Aron Bayn~ Jayson Ta~            2
##  9 Jayson Tatum  Al Horford  Aron Baynes Terry Roz~ Kyrie Irv~           -4
## 10 Jayson Tatum  Al Horford  Jaylen Bro~ Kyrie Irv~ Marcus Sm~            6
## # ... with 11 more rows
…
And now we can drill back down into a single team and verify that we’re getting the numbers we want:

fm %>% 
  filter(team == "BOS") %>% 
  select(`Five-man Plus/Minus`) %>% unnest() %>% arrange(desc(`Plus/Minus`))

## # A tibble: 21 x 6
##    p1            p2          p3          p4         p5         `Plus/Minus`
##    <chr>         <chr>       <chr>       <chr>      <chr>             <dbl>
##  1 Jayson Tatum  Al Horford  Jaylen Bro~ Kyrie Irv~ Marcus Sm~            6
##  2 Jayson Tatum  Terry Rozi~ Shane Lark~ Marcus Sm~ Al Horford            5
##  3 Al Horford    Jaylen Bro~ Marcus Sma~ Terry Roz~ Kyrie Irv~            3
##  4 Gordon Haywa~ Jayson Tat~ Al Horford  Jaylen Br~ Kyrie Irv~            3
##  5 Jayson Tatum  Jaylen Bro~ Kyrie Irvi~ Terry Roz~ Aron Bayn~            3
##  6 Kyrie Irving  Marcus Sma~ Jaylen Bro~ Aron Bayn~ Jayson Ta~            3
##  7 Jaylen Brown  Terry Rozi~ Kyrie Irvi~ Aron Bayn~ Jayson Ta~            2
##  8 Jayson Tatum  Al Horford  Terry Rozi~ Kyrie Irv~ Semi Ojel~            2
##  9 Jayson Tatum  Al Horford  Marcus Sma~ Aron Bayn~ Terry Roz~            1
## 10 Jayson Tatum  Jaylen Bro~ Kyrie Irvi~ Marcus Sm~ Terry Roz~            1
## # ... with 11 more rows
…
