…
After reading my my previous post on calibration, my clever wife (who’s been doing calibration-related activities in the context of modeling and simulation) brought to my attention the concept of Brier Scores. (Alternatively, here.) This approach was originally proposed to evaluate weather forecasts (“Verification of weather forecasts has been a controversial subject for more than half a century,” so at least we’ve moved on controversial climate forecasts in this half-century.)

The math itself is pretty easy for binary predictions (it’s just a squared error loss function, using the probabilities as the “expected value” of an event). Unlike the previous approaches I went through, Brier scores don’t give you a nice hypothesis test. Instead, they give you a relative performance score, allowing you to compare different forecasters on the same set of outcomes. Depending on how loose you want to be with your assumptions, Scott could use this to compare his year-to-year performance and see if he’s getting better, worse, or staying about the same in terms of his prediction skills over time.*

And the R packages scoring has a simple implementation (there really is an R package for just about everything), so we can use that provided we get the data formatted properly. Brier scores are based on individual event observations, so we have to gather the data a bit differently than before. The function I wrote to do this is included at the end of the post for those interested.

url <- 'https://slatestarcodex.com/2019/01/22/2018-predictions-calibration-results/'
library(dplyr)
library(stringr)
library(scoring)
out18 <- get_scotts_results(url) %>% 
  mutate(year = 2018)
out18

## # A tibble: 99 x 4
##    question                                               prob right  year
##    <chr>                                                 <dbl> <lgl> <dbl>
##  1 1. Donald Trump remains president at end of year: 95%  0.95 TRUE   2018
##  2 2. Democrats take control of the House in midterms: ~  0.8  TRUE   2018
##  3 3. Democrats take control of the Senate in midterms:~  0.5  FALSE  2018
##  4 4. Mueller’s investigation gets cancelled (eg Trump ~  0.5  FALSE  2018
##  5 5. Mueller does not indict Trump: 70%                  0.7  TRUE   2018
##  6 6. PredictIt shows Bernie Sanders having highest cha~  0.6  FALSE  2018
##  7 7. PredictIt shows Donald Trump having highest chanc~  0.95 TRUE   2018
##  8 9. Some sort of major immigration reform legislation~  0.7  FALSE  2018
##  9 10. No major health-care reform legislation gets pas~  0.95 TRUE   2018
## 10 11. No large-scale deportation of Dreamers: 90%        0.9  TRUE   2018
## # ... with 89 more rows
…
