…
}

This function is designed to work with purrr::map2 on the nested data set we just built. To get the time values, we use the play_length column from our data set along with lubridate::hms, which takes the column and tells R how to process it properly. I found this worked so well that I want to pause to illustrate it quickly:

tmp %>% 
  filter(team == "BOS") %>% 
  select(`team events`) %>% 
  unnest %>% 
  select(play_length) %>% 
  mutate(pls = hms(play_length)) #  <-- critical line of code from lubridate

## # A tibble: 477 x 2
##    play_length pls         
##    <chr>       <S4: Period>
##  1 0:00:00     0S          
##  2 0:00:00     0S          
##  3 0:00:16     16S         
##  4 0:00:17     17S         
##  5 0:00:04     4S          
##  6 0:00:02     2S          
##  7 0:00:03     3S          
##  8 0:00:16     16S         
##  9 0:00:03     3S          
## 10 0:00:08     8S          
## # ... with 467 more rows

Boy, howdy that’s easy! And the new column will do intuitive things when, for example, you use functions like sum over it.

Now let’s build our plus-minus data and check it out!

pm <- tmp %>%
  mutate(`Five-man Plus/Minus` = map2(`team events`, team, get_fiveman_plusminus))

pm %>% filter(team == "BOS") %>% select(`Five-man Plus/Minus`) %>% unnest()

## # A tibble: 25 x 7
##    p1          p2        p3        p4        p5       `Plus/Minus` unittime
##    <chr>       <chr>     <chr>     <chr>     <chr>           <dbl>    <dbl>
##  1 Al Horford  Jaylen B~ Marcus S~ Terry Ro~ Kyrie I~            3      103
##  2 Al Horford  Jaylen B~ Marcus S~ Terry Ro~ Shane L~           -1       89
##  3 Al Horford  Kyrie Ir~ Semi Oje~ Marcus S~ Jaylen ~           -3      128
##  4 Al Horford  Terry Ro~ Kyrie Ir~ Semi Oje~ Marcus ~            0        0
##  5 Gordon Hay~ Jayson T~ Al Horfo~ Jaylen B~ Kyrie I~            3      315
##  6 Jaylen Bro~ Kyrie Ir~ Jayson T~ Al Horfo~ Marcus ~           -6      298
##  7 Jaylen Bro~ Kyrie Ir~ Marcus S~ Aron Bay~ Semi Oj~            0        0
##  8 Jaylen Bro~ Marcus S~ Aron Bay~ Semi Oje~ Terry R~           -4      117
##  9 Jaylen Bro~ Marcus S~ Terry Ro~ Kyrie Ir~ Aron Ba~            0       88
## 10 Jaylen Bro~ Terry Ro~ Kyrie Ir~ Aron Bay~ Jayson ~            2      129
## # ... with 15 more rows

This is basically where we were last time, except now we’ve got the total duration of game time each of these units played. This also has the values broken out by “game section” as we defined it above, so we’ll have to include a summarise step to aggregate these. Also note that “0 second” periods. This is due to a quirk with the data set, which codes each substitution individually. When two players check in simultaneously, there’s a “0 second duration” section when only one player has checked in. So basically we want to ignore those sections, and we do so with a filter(unittime > 0) step.

By taking those times, summing over we can normalize unit performance to a per-36-minute basis:

pm %>% filter(team == "BOS") %>% select(`Five-man Plus/Minus`) %>% unnest() %>% 
  group_by(p1, p2, p3, p4, p5) %>% 
  filter(unittime > 0) %>% 
  summarise(tpm = sum(`Plus/Minus`),
            ttime = sum(unittime)) %>% 
  mutate(normpm = tpm * 3600 / ttime)

## # A tibble: 21 x 8
## # Groups:   p1, p2, p3, p4 [20]
##    p1          p2         p3         p4        p5          tpm ttime normpm
##    <chr>       <chr>      <chr>      <chr>     <chr>     <dbl> <dbl>  <dbl>
##  1 Al Horford  Jaylen Br~ Marcus Sm~ Terry Ro~ Kyrie Ir~     3   103  105. 
##  2 Al Horford  Jaylen Br~ Marcus Sm~ Terry Ro~ Shane La~    -1    89  -40.4
##  3 Al Horford  Kyrie Irv~ Semi Ojel~ Marcus S~ Jaylen B~    -3   128  -84.4
##  4 Gordon Hay~ Jayson Ta~ Al Horford Jaylen B~ Kyrie Ir~     3   315   34.3
##  5 Jaylen Bro~ Kyrie Irv~ Jayson Ta~ Al Horfo~ Marcus S~    -6   298  -72.5
##  6 Jaylen Bro~ Marcus Sm~ Aron Bayn~ Semi Oje~ Terry Ro~    -4   117 -123. 
##  7 Jaylen Bro~ Marcus Sm~ Terry Roz~ Kyrie Ir~ Aron Bay~     0    88    0  
##  8 Jaylen Bro~ Terry Roz~ Kyrie Irv~ Aron Bay~ Jayson T~     2   129   55.8
##  9 Jaylen Bro~ Terry Roz~ Kyrie Irv~ Jayson T~ Al Horfo~     0    13    0  
## 10 Jayson Tat~ Al Horford Aron Bayn~ Terry Ro~ Kyrie Ir~    -4    79 -182. 
## # ... with 11 more rows
…
