DIY Metrics: Counting up simple statistics
…
This post is focused on simple counting stats or box score statistics that were basically the standard way to discuss NBA players until quite recently. So aggregate numbers of rebounds, assists, steals, etc. We’ve dabbled a bit already with more “advanced” metrics like raw and pace-adjusted plus/minus, so this is in some ways going back to basics. I think it’s worth exploring, however, because many of the things we look at here are key for taking some of the more “advanced” looks that folks like to do.

Cleaning, again.

Our first challenge is that the play-by-play data we’re working with doesn’t treat each type of event equally. For some (e.g., a turnover), there’s a specific tag showing that a turnover occurred. And as far as I can tell, it’s pretty consistent! There’s a column for it and everything. This is what it looks like:

tmp <- read_csv("data/[10-17-2017]-[06-08-2018]-combined-stats.csv") %>%
    slice(1:1000)

tmp %>%
    select(player, event_type, description) %>%
    print(n = 10)

## # A tibble: 1,000 x 3
##    player       event_type    description                                  
##    <chr>        <chr>         <chr>                                        
##  1 <NA>         start of per~ <NA>                                         
##  2 Kevin Love   jump ball     Jump Ball Love vs. Horford: Tip to Irving    
##  3 Kyrie Irving shot          Irving 10' Driving Floating Jump Shot (2 PTS~
##  4 Derrick Rose miss          Horford BLOCK (1 BLK), MISS Rose 2' Layup    
##  5 Al Horford   rebound       Horford REBOUND (Off:0 Def:1)                
##  6 Gordon Hayw~ miss          MISS Hayward 25' 3PT Jump Shot               
##  7 Derrick Rose rebound       Rose REBOUND (Off:0 Def:1)                   
##  8 Kevin Love   miss          MISS Love 16' Jump Shot                      
##  9 Jaylen Brown rebound       Brown REBOUND (Off:0 Def:1)                  
## 10 Jayson Tatum miss          MISS Tatum 3' Cutting Layup Shot, James BLOC~
## # ... with 990 more rows

The three columns highlighted above are generally our best bets for information about the play. When we were working with point values directly, there were some other columns of interest, but for anything that isn’t a change in point values, these seem to be where it’s at. As you can see, there’s information on whether there was a TO, whether someone got a rebound, block, etc. So what we need to do is extract that.

Our first step is generating indicator functions from these columns to tell us when an event occurred. For some types, this is easier than others. For example, we can see pretty clearly that the event_type column gives us a ready-made indicator of when someone made a basket or missed a basket. Made baskets are coded as shot and missed baskets are coded as miss. Thus, we build columns for made and missed field goals:

tmp %>% 
  mutate(fgmade = event_type == "shot",
         fgmiss = event_type == "miss") %>% 
  select(player, fgmade, fgmiss)

## # A tibble: 1,000 x 3
##    player         fgmade fgmiss
##    <chr>          <lgl>  <lgl> 
##  1 <NA>           FALSE  FALSE 
##  2 Kevin Love     FALSE  FALSE 
##  3 Kyrie Irving   TRUE   FALSE 
##  4 Derrick Rose   FALSE  TRUE  
##  5 Al Horford     FALSE  FALSE 
##  6 Gordon Hayward FALSE  TRUE  
##  7 Derrick Rose   FALSE  FALSE 
##  8 Kevin Love     FALSE  TRUE  
##  9 Jaylen Brown   FALSE  FALSE 
## 10 Jayson Tatum   FALSE  TRUE  
## # ... with 990 more rows
…
Figure out if that event was caused by a player on the team we’re looking at

If so, attribute that event to that player

Build a new row in our data frame containing information on that event for easy processing later

For (1), we’ll exploit the consistent way in which these events are written in the description. For steals and blocks, the description is written as “[player last name] STEAL”. (Block are done the same way.) For assists, it’s “([player last name] [integer] AST)”. These lend themselves well to some good ’ole regular expressions!

tmp %>%
  mutate(gotit = map_chr(description, str_extract, paste("[:alpha:]+", "STEAL"))) %>% 
  filter(!is.na(gotit)) %>% 
  select(player, description, gotit)

## # A tibble: 29 x 3
##    player      description                                     gotit       
##    <chr>       <chr>                                           <chr>       
##  1 Derrick Ro~ Irving STEAL (1 STL), Rose Lost Ball Turnover ~ Irving STEAL
##  2 Aron Baynes Baynes Lost Ball Turnover (P1.T3), Shumpert ST~ Shumpert ST~
##  3 Kevin Love  Irving STEAL (2 STL), Love Bad Pass Turnover (~ Irving STEAL
##  4 Kyrie Irvi~ Irving Bad Pass Turnover (P1.T7), Crowder STEA~ Crowder STE~
##  5 Jae Crowder Smart STEAL (1 STL), Crowder Lost Ball Turnove~ Smart STEAL 
##  6 Derrick Ro~ Brown STEAL (1 STL), Rose Bad Pass Turnover (P~ Brown STEAL 
##  7 Dwyane Wade Smart STEAL (2 STL), Wade Bad Pass Turnover (P~ Smart STEAL 
##  8 Dwyane Wade Brown STEAL (2 STL), Wade Bad Pass Turnover (P~ Brown STEAL 
##  9 Dwyane Wade Irving STEAL (3 STL), Wade Bad Pass Turnover (~ Irving STEAL
## 10 LeBron Jam~ Rozier STEAL (1 STL), James Bad Pass Turnover ~ Rozier STEAL
## # ... with 19 more rows

Using purrr::map_chr and stringr::str_extract, we’re able to pick out the relevant bit of information we want from these data points. Next, we add a little bit of processing to separate the player from the event and then use the player’s full name rather than just the last name. This latter step allows us to be consistent with the conventions for other events (like field goals, above).

  evplayer <- "STEAL player"
  tmp %>%
    mutate(allplayers = paste(a1, a2, a3, a4, a5, sep = ","),
           gotit = map_chr(description, str_extract, paste("[:alpha:]+", "STEAL")),
           evlastname = map_chr(gotit, str_sub, end = -7),
           regexname = paste("[:alpha:]+", evlastname),
           !!evplayer := map2_chr(allplayers, regexname, str_extract)) %>% 
    filter(!is.na(gotit)) %>% 
    select(-allplayers, -gotit, -evlastname, -regexname) %>% 
    select(description, `STEAL player`)

## # A tibble: 29 x 2
##    description                                               `STEAL player`
##    <chr>                                                     <chr>         
##  1 Irving STEAL (1 STL), Rose Lost Ball Turnover (P1.T1)     Kyrie Irving  
##  2 Baynes Lost Ball Turnover (P1.T3), Shumpert STEAL (1 STL) <NA>          
##  3 Irving STEAL (2 STL), Love Bad Pass Turnover (P1.T5)      Kyrie Irving  
##  4 Irving Bad Pass Turnover (P1.T7), Crowder STEAL (1 STL)   <NA>          
##  5 Smart STEAL (1 STL), Crowder Lost Ball Turnover (P1.T6)   Marcus Smart  
##  6 Brown STEAL (1 STL), Rose Bad Pass Turnover (P2.T7)       Jaylen Brown  
##  7 Smart STEAL (2 STL), Wade Bad Pass Turnover (P2.T8)       Marcus Smart  
##  8 Brown STEAL (2 STL), Wade Bad Pass Turnover (P3.T9)       Jaylen Brown  
##  9 Irving STEAL (3 STL), Wade Bad Pass Turnover (P4.T10)     Kyrie Irving  
## 10 Rozier STEAL (1 STL), James Bad Pass Turnover (P3.T12)    Terry Rozier  
## # ... with 19 more rows
…
