DIY Metrics
…
A little exploring shows us that the columns named “a1”, “a2”, etc. and “h1”, “h2”, etc. have the names of the “away” and “home” players in them. There’s also the number of points that were scored on a particular event, points, and the player who scored them, player. Unfortunately, there’s no column telling us explicitly which team scored points. Additionally, there’s a lot of other information in this data set that we don’t need for this exercise, including shot position, non-scoring events, etc. So we’ll do some cleaning to reformat this data and get it to where we need it for our purposes.

A simple first step is to generate a list of players and the teams on which they play. This is both a first step towards building the example table we highlighted above and also useful for matching up players scoring with particular teams scoring:

teamsandplayers <- tb %>% 
  filter(elapsed > 0) %>% #eliminates weird cases like opening jump ball
  select(player, team) %>% 
  filter(!is.na(player)) %>% 
  distinct() 
teamsandplayers

## # A tibble: 99 x 2
##    player         team 
##    <chr>          <chr>
##  1 Kyrie Irving   BOS  
##  2 Derrick Rose   CLE  
##  3 Al Horford     BOS  
##  4 Gordon Hayward BOS  
##  5 Kevin Love     CLE  
##  6 Jaylen Brown   BOS  
##  7 Jayson Tatum   BOS  
##  8 Jae Crowder    CLE  
##  9 Dwyane Wade    CLE  
## 10 LeBron James   CLE  
## # ... with 89 more rows
…
pm <- rep(0, nrow(teamsandplayers))
for(i in 1:nrow(teamsandplayers)){
  
 pm[i] <- get_plus_minus(teamsandplayers$player[i], tb, teamsandplayers)[[1]]
 
}

playerplusminus <- teamsandplayers %>% 
  bind_cols(tibble("Plus/Minus" = pm)) %>% 
  arrange(player)

playerplusminus

## # A tibble: 99 x 3
##    player           team  `Plus/Minus`
##    <chr>            <chr>        <dbl>
##  1 Aaron Gordon     ORL             10
##  2 Al Horford       BOS              4
##  3 Allen Crabbe     BKN              5
##  4 Andre Drummond   DET              8
##  5 Aron Baynes      BOS            -12
##  6 Avery Bradley    DET             12
##  7 Bam Adebayo      MIA              2
##  8 Bismack Biyombo  ORL             -2
##  9 Bojan Bogdanovic IND              4
## 10 Caris LeVert     BKN             -1
## # ... with 89 more rows
…
